<?xml version="1.0" standalone="no"?>
<!DOCTYPE svg PUBLIC "-//W3C//DTD SVG 20010904//EN"
 "http://www.w3.org/TR/2001/REC-SVG-20010904/DTD/svg10.dtd">
<svg version="1.0" xmlns="http://www.w3.org/2000/svg"
 width="88.000000pt" height="38.000000pt" viewBox="0 0 88.000000 38.000000"
 preserveAspectRatio="xMidYMid meet">

<g transform="translate(0.000000,38.000000) scale(0.100000,-0.100000)"
fill="#000000" stroke="none">
<path d="M92 310 c-41 -25 -66 -80 -57 -124 7 -31 50 -86 68 -86 5 0 -2 9 -17
21 -28 22 -34 39 -13 39 8 0 19 -10 25 -22 10 -22 10 -22 8 5 -2 15 -6 30 -9
34 -4 3 -7 19 -7 35 0 24 4 28 30 28 17 0 30 -4 30 -10 0 -5 -7 -10 -15 -10
-12 0 -15 -15 -15 -74 l0 -73 50 -5 c28 -3 73 -3 100 0 l50 5 0 74 0 75 -52
-3 c-77 -3 -108 0 -108 11 0 6 14 10 30 10 17 0 30 -5 30 -12 0 -9 3 -9 9 1 5
8 16 11 25 8 41 -16 2 54 -44 78 -40 21 -79 19 -118 -5z m58 -25 c0 -31 -3
-35 -25 -35 -14 0 -25 3 -25 6 0 17 34 63 48 64 1 0 2 -16 2 -35z m53 16 c4
-1 11 -1 16 -1 5 0 16 -11 25 -25 15 -24 15 -25 -2 -25 -10 0 -23 12 -29 28
l-12 27 6 -27 c5 -25 2 -28 -21 -28 -23 0 -26 4 -26 35 0 31 2 34 18 26 9 -5
20 -9 25 -10z m-106 -21 c-7 -18 -19 -30 -30 -30 -14 0 -16 3 -7 20 8 15 34
37 47 40 1 0 -4 -13 -10 -30z m-15 -75 c3 -28 1 -35 -14 -35 -19 0 -35 41 -23
59 13 23 33 10 37 -24z m136 -60 l3 -50 -46 3 -45 4 0 50 0 49 43 -3 42 -3 3
-50z m92 6 l0 -49 -40 -4 -40 -4 0 53 0 53 40 0 40 0 0 -49z"/>
</g>
</svg>
